EDA (Zammad Ticket System)
…
bigram.counts <- user.df %>%
  select(text.clean) %>%
  unnest_tokens(bigram, text.clean, token = "ngrams", n = 2) %>%
  filter(!bigram %in% remove.bigrams) %>%
  count(bigram, sort = TRUE)

bigram.counts %>%
  slice_max(n, n = 20)

## # A tibble: 22 × 2
##    bigram                  n
##    <chr>               <int>
##  1 reference to          202
##  2 undefined reference   202
##  3 opt python            170
##  4 https github.com      140
##  5 opt tools             127
##  6 not found             114
##  7 mamba3 envs           113
##  8 python mamba3         113
##  9 opt compilers         110
## 10 qt 5.15.8             105
## # ℹ 12 more rows
…
Time analysis

tickets.time <- articles.df %>%
  arrange(ticket.id, created.at) %>%
  group_by(ticket.id) %>%
  mutate(time.diff = as.numeric(difftime(created.at, lag(created.at), units = "mins"))) %>%
  ungroup()

tickets.time

## # A tibble: 1,674 × 9
##    id    ticket.id type.id sender.id body           internal created.at         
##    <chr> <chr>     <chr>   <chr>     <chr>          <chr>    <dttm>             
##  1 1     1         5       2         "'Welcome!\\n… 0        2021-06-28 20:29:50
##  2 104   100       1       2         "'<h1>New Reg… 0        2020-11-27 04:53:55
##  3 105   101       1       2         "'<p>Dear Sir… 0        2020-11-27 08:50:34
##  4 106   102       1       2         "'<h1>New Reg… 0        2020-11-27 20:30:43
##  5 107   103       1       2         "'<p>Hey guy,… 0        2020-11-27 21:59:30
##  6 108   104       1       2         "'<p>Dear Fri… 0        2020-11-28 15:34:36
##  7 109   105       1       2         "'Dear madam … 0        2020-11-30 13:08:10
##  8 110   106       1       2         "'<h1>New Reg… 0        2020-11-30 18:25:25
##  9 111   107       1       2         "'<h1>New Reg… 0        2020-11-30 21:34:52
## 10 112   108       1       2         "'<p>Dear <sp… 0        2020-12-02 05:28:12
## # ℹ 1,664 more rows
## # ℹ 2 more variables: text.clean <chr>, time.diff <dbl>
…
